SAT scores, percent taking exam and state funding per student by state for 1994, 1995 and 1999 — Sat • BSDA
…
    Source

    The 2000 World Almanac and Book of Facts, Funk and Wagnalls Corporation, New Jersey.

    References

    Kitchens, L. J. (2003) Basic Statistics and Data Analysis.
Pacific Grove, CA: Brooks/Cole, a division of Thomson Learning.

    Examples

Sat94 <- Sat[Sat$year == 1994, ]
Sat94
#> # A tibble: 51 × 7
#>    state            verbal  math total percent expend year 
#>    <chr>             <int> <int> <int>   <int>  <int> <fct>
#>  1 alabama             482   529  1011       8   3616 1994 
#>  2 alaska              434   477   911      49   8450 1994 
#>  3 arizona             443   496   939      26   4381 1994 
#>  4 arkansas            417   518   935       6   4031 1994 
#>  5 california          413   482   895      46   4746 1994 
#>  6 colorado            456   513   969      28   5172 1994 
#>  7 connecticut         426   472   898      80   8017 1994 
#>  8 delaware            428   464   892      68   6093 1994 
#>  9 dist of columbia    406   443   849      53   9549 1994 
#> 10 florida             413   466   879      49   5243 1994 
#> # … with 41 more rows
Sat99 <- subset(Sat, year == 1999)
Sat99
#> # A tibble: 51 × 7
#>    state            verbal  math total percent expend year 
#>    <chr>             <int> <int> <int>   <int>  <int> <fct>
#>  1 alabama             561   555  1116       9   4903 1999 
#>  2 alaska              516   514  1030      50   9097 1999 
#>  3 arizona             524   525  1049      34   4940 1999 
#>  4 arkansas            563   556  1119       6   4840 1999 
#>  5 california          497   514  1011      49   5414 1999 
#>  6 colorado            536   540  1076      32   5728 1999 
#>  7 connecticut         510   509  1019      80   8901 1999 
#>  8 delaware            503   497  1000      67   7804 1999 
#>  9 dist of columbia    494   478   972      77   9019 1999 
#> 10 florida             499   498   997      53   5986 1999 
#> # … with 41 more rows
…
