Injury level versus seatbelt usage — Seatbelt • BSDA
…
    References

    Kitchens, L. J. (2003) Basic Statistics and Data Analysis.
Duxbury

    Examples

str(Seatbelt)
#> Classes ‘tbl_df’, ‘tbl’ and 'data.frame':	86769 obs. of  2 variables:
#>  $ seatbelt: Factor w/ 2 levels "Yes","No": 1 1 1 1 1 1 1 1 1 1 ...
#>  $ injuries: Factor w/ 4 levels "None","Minimal",..: 1 1 1 1 1 1 1 1 1 1 ...
attach(Seatbelt)
Seatbelt
#> # A tibble: 86,769 x 2
#>    seatbelt injuries
#>      <fctr>   <fctr>
#>  1      Yes     None
#>  2      Yes     None
#>  3      Yes     None
#>  4      Yes     None
#>  5      Yes     None
#>  6      Yes     None
#>  7      Yes     None
#>  8      Yes     None
#>  9      Yes     None
#> 10      Yes     None
#> # ... with 86,759 more rows
…
